Measurements/rawData_oxySensor/20181214_Ired_Gunnar_part2.CSV

Record Length,2.500000e+03,,   0.000000000000,  -0.15600,
Sample Interval,1.000000e-02,,   0.010000000000,  -0.15600,
Trigger Point,0.000000000000e+00,,   0.020000000000,  -0.15600,
,,,   0.030000000000,  -0.15600,
,,,   0.040000000000,  -0.15600,
,,,   0.050000000000,  -0.15600,
Source,CH2,,   0.060000000000,  -0.15600,
Vertical Units,V,,   0.070000000000,  -0.15600,
Vertical Scale,5.000000e-02,,   0.080000000000,  -0.15600,
Vertical Offset,-1.000000e-01,,   0.090000000000,  -0.15600,
Horizontal Units,s,,   0.100000000000,  -0.15600,
Horizontal Scale,2.500000e+00,,   0.110000000000,  -0.15600,
Pt Fmt,Y,,   0.120000000000,  -0.15600,
Yzero,0.000000e+00,,   0.130000000000,  -0.15600,
Probe Atten,1.000000e+01,,   0.140000000000,  -0.15600,
Model Number,TBS1064,,   0.150000000000,  -0.15600,
Serial Number,C011211,,   0.160000000000,  -0.15600,
Firmware Version,FV:v26.05,,   0.170000000000,  -0.15600,
,,,0.180000000000,  -0.15600,
,,,0.190000000000,  -0.15600,
,,,0.200000000000,  -0.15600,
,,,0.210000000000,  -0.15600,
,,,0.220000000000,  -0.15600,
,,,0.230000000000,  -0.15600,
,,,0.240000000000,  -0.15600,
,,,0.250000000000,  -0.15600,
,,,0.260000000000,  -0.15600,
,,,0.270000000000,  -0.15600,
,,,0.280000000000,  -0.15600,
,,,0.290000000000,  -0.15600,
,,,0.300000000000,  -0.15600,
,,,0.310000000000,  -0.15600,
,,,0.320000000000,  -0.15600,
,,,0.330000000000,  -0.15600,
,,,0.340000000000,  -0.15600,
,,,0.350000000000,  -0.15600,
,,,0.360000000000,  -0.15600,
,,,0.370000000000,  -0.15600,
,,,0.380000000000,  -0.15600,
,,,0.390000000000,  -0.15600,
,,,0.400000000000,  -0.15600,
,,,0.410000000000,  -0.15600,
,,,0.420000000000,  -0.15600,
,,,0.430000000000,  -0.15600,
,,,0.440000000000,  -0.15600,
,,,0.450000000000,  -0.15600,
,,,0.460000000000,  -0.15600,
,,,0.470000000000,  -0.15600,
,,,0.480000000000,  -0.15600,
,,,0.490000000000,  -0.15600,
,,,0.500000000000,  -0.15600,
,,,0.510000000000,  -0.15600,
,,,0.520000000000,  -0.15600,
,,,0.530000000000,  -0.15600,
,,,0.540000000000,  -0.15600,
,,,0.550000000000,  -0.15600,
,,,0.560000000000,  -0.15600,
,,,0.570000000000,  -0.15600,
,,,0.580000000000,  -0.15600,
,,,0.590000000000,  -0.15600,
,,,0.600000000000,  -0.15600,
,,,0.610000000000,  -0.15600,
,,,0.620000000000,  -0.15600,
,,,0.630000000000,  -0.15600,
,,,0.640000000000,  -0.15600,
,,,0.650000000000,  -0.15600,
,,,0.660000000000,  -0.15600,
,,,0.670000000000,  -0.15600,
,,,0.680000000000,  -0.15600,
,,,0.690000000000,  -0.15600,
,,,0.700000000000,  -0.15600,
,,,0.710000000000,  -0.15600,
,,,0.720000000000,  -0.15600,
,,,0.730000000000,  -0.15600,
,,,0.740000000000,  -0.15600,
,,,0.750000000000,  -0.15600,
,,,0.760000000000,  -0.15600,
,,,0.770000000000,  -0.15600,
,,,0.780000000000,  -0.15600,
,,,0.790000000000,  -0.15600,
,,,0.800000000000,  -0.15600,
,,,0.810000000000,  -0.15600,
,,,0.820000000000,  -0.15600,
,,,0.830000000000,  -0.15600,
,,,0.840000000000,  -0.15600,
,,,0.850000000000,  -0.15600,
,,,0.860000000000,  -0.15600,
,,,0.870000000000,  -0.15600,
,,,0.880000000000,  -0.15600,
,,,0.890000000000,  -0.15600,
,,,0.900000000000,  -0.15600,
,,,0.910000000000,  -0.15600,
,,,0.920000000000,  -0.15600,
,,,0.930000000000,  -0.15600,
,,,0.940000000000,  -0.15600,
,,,0.950000000000,  -0.15600,
,,,0.960000000000,  -0.15600,
,,,0.970000000000,  -0.15600,
,,,0.980000000000,  -0.15600,
,,,0.990000000000,  -0.15600,
,,,1.000000000000,  -0.15600,
,,,1.010000000000,  -0.15600,
,,,1.020000000000,  -0.15600,
,,,1.030000000000,  -0.15600,
,,,1.040000000000,  -0.15600,
,,,1.050000000000,  -0.15600,
,,,1.060000000000,  -0.04400,
,,,1.070000000000,  -0.03400,
,,,1.080000000000,  -0.05400,
,,,1.090000000000,  -0.04400,
,,,1.100000000000,  -0.05800,
,,,1.110000000000,  -0.04600,
,,,1.120000000000,  -0.06800,
,,,1.130000000000,  -0.06000,
,,,1.140000000000,  -0.07400,
,,,1.150000000000,  -0.05600,
,,,1.160000000000,  -0.07000,
,,,1.170000000000,  -0.05200,
,,,1.180000000000,  -0.07000,
,,,1.190000000000,  -0.05600,
,,,1.200000000000,  -0.06600,
,,,1.210000000000,  -0.05400,
,,,1.220000000000,  -0.05600,
,,,1.230000000000,  -0.04200,
,,,1.240000000000,  -0.04800,
,,,1.250000000000,  -0.03800,
,,,1.260000000000,  -0.05400,
,,,1.270000000000,  -0.03600,
,,,1.280000000000,  -0.04800,
,,,1.290000000000,  -0.03400,
,,,1.300000000000,  -0.04600,
,,,1.310000000000,  -0.02800,
,,,1.320000000000,  -0.04600,
,,,1.330000000000,  -0.03200,
,,,1.340000000000,  -0.05400,
,,,1.350000000000,  -0.03600,
,,,1.360000000000,  -0.05400,
,,,1.370000000000,  -0.04200,
,,,1.380000000000,  -0.05600,
,,,1.390000000000,  -0.04400,
,,,1.400000000000,  -0.05800,
,,,1.410000000000,  -0.04000,
,,,1.420000000000,  -0.05400,
,,,1.430000000000,  -0.03400,
,,,1.440000000000,  -0.03800,
,,,1.450000000000,  -0.00400,
,,,1.460000000000,   0.00200,
,,,1.470000000000,   0.04800,
,,,1.480000000000,   0.04800,
,,,1.490000000000,   0.09400,
,,,1.500000000000,   0.09800,
,,,1.510000000000,   0.12600,
,,,1.520000000000,   0.11800,
,,,1.530000000000,   0.15200,
,,,1.540000000000,   0.13400,
,,,1.550000000000,   0.15400,
,,,1.560000000000,   0.13600,
,,,1.570000000000,   0.15200,
,,,1.580000000000,   0.13000,
,,,1.590000000000,   0.13800,
,,,1.600000000000,   0.11600,
,,,1.610000000000,   0.12000,
,,,1.620000000000,   0.08600,
,,,1.630000000000,   0.09400,
,,,1.640000000000,   0.06600,
,,,1.650000000000,   0.07400,
,,,1.660000000000,   0.04400,
,,,1.670000000000,   0.05000,
,,,1.680000000000,   0.02200,
,,,1.690000000000,   0.02800,
,,,1.700000000000,   0.00400,
,,,1.710000000000,   0.00800,
,,,1.720000000000,   0.00200,
,,,1.730000000000,   0.01400,
,,,1.740000000000,  -0.00800,
,,,1.750000000000,   0.02400,
,,,1.760000000000,   0.00000,
,,,1.770000000000,   0.02000,
,,,1.780000000000,   0.02000,
,,,1.790000000000,   0.03200,
,,,1.800000000000,   0.01200,
,,,1.810000000000,   0.04200,
,,,1.820000000000,   0.02000,
,,,1.830000000000,   0.04600,
,,,1.840000000000,   0.03000,
,,,1.850000000000,   0.04000,
,,,1.860000000000,   0.01800,
,,,1.870000000000,   0.02800,
,,,1.880000000000,   0.01000,
,,,1.890000000000,   0.02000,
,,,1.900000000000,   0.00000,
,,,1.910000000000,   0.00400,
,,,1.920000000000,  -0.01600,
,,,1.930000000000,  -0.00200,
,,,1.940000000000,  -0.03000,
,,,1.950000000000,  -0.01400,
,,,1.960000000000,  -0.03600,
,,,1.970000000000,  -0.03000,
,,,1.980000000000,  -0.06000,
,,,1.990000000000,  -0.03600,
,,,2.000000000000,  -0.05400,
,,,2.010000000000,  -0.04400,
,,,2.020000000000,  -0.06400,
,,,2.030000000000,  -0.04800,
,,,2.040000000000,  -0.06600,
,,,2.050000000000,  -0.05200,
,,,2.060000000000,  -0.07400,
,,,2.070000000000,  -0.05200,
,,,2.080000000000,  -0.07000,
,,,2.090000000000,  -0.05000,
,,,2.100000000000,  -0.06200,
,,,2.110000000000,  -0.04800,
,,,2.120000000000,  -0.06400,
,,,2.130000000000,  -0.04200,
,,,2.140000000000,  -0.05600,
,,,2.150000000000,  -0.03800,
,,,2.160000000000,  -0.05200,
,,,2.170000000000,  -0.03600,
,,,2.180000000000,  -0.04000,
,,,2.190000000000,  -0.03000,
,,,2.200000000000,  -0.04200,
,,,2.210000000000,  -0.02800,
,,,2.220000000000,  -0.04800,
,,,2.230000000000,  -0.02000,
,,,2.240000000000,  -0.04200,
,,,2.250000000000,  -0.03600,
,,,2.260000000000,  -0.05200,
,,,2.270000000000,  -0.03200,
,,,2.280000000000,  -0.05400,
,,,2.290000000000,  -0.03800,
,,,2.300000000000,  -0.06000,
,,,2.310000000000,  -0.04800,
,,,2.320000000000,  -0.06000,
,,,2.330000000000,  -0.05000,
,,,2.340000000000,  -0.06600,
,,,2.350000000000,  -0.04400,
,,,2.360000000000,  -0.05600,
,,,2.370000000000,  -0.02800,
,,,2.380000000000,  -0.02000,
,,,2.390000000000,   0.02000,
,,,2.400000000000,   0.02800,
,,,2.410000000000,   0.06400,
,,,2.420000000000,   0.06600,
,,,2.430000000000,   0.09800,
,,,2.440000000000,   0.09800,
,,,2.450000000000,   0.12600,
,,,2.460000000000,   0.11800,
,,,2.470000000000,   0.13600,
,,,2.480000000000,   0.13200,
,,,2.490000000000,   0.13400,
,,,2.500000000000,   0.11800,
,,,2.510000000000,   0.13000,
,,,2.520000000000,   0.10600,
,,,2.530000000000,   0.11600,
,,,2.540000000000,   0.08200,
,,,2.550000000000,   0.08200,
,,,2.560000000000,   0.06600,
,,,2.570000000000,   0.07000,
,,,2.580000000000,   0.03600,
,,,2.590000000000,   0.04200,
,,,2.600000000000,   0.01000,
,,,2.610000000000,   0.02200,
,,,2.620000000000,  -0.00600,
,,,2.630000000000,   0.00000,
,,,2.640000000000,  -0.01400,
,,,2.650000000000,  -0.00800,
,,,2.660000000000,  -0.02000,
,,,2.670000000000,   0.00600,
,,,2.680000000000,  -0.00400,
,,,2.690000000000,   0.01000,
,,,2.700000000000,   0.00200,
,,,2.710000000000,   0.02400,
,,,2.720000000000,   0.01800,
,,,2.730000000000,   0.03800,
,,,2.740000000000,   0.02400,
,,,2.750000000000,   0.04200,
,,,2.760000000000,   0.02600,
,,,2.770000000000,   0.04000,
,,,2.780000000000,   0.02000,
,,,2.790000000000,   0.03800,
,,,2.800000000000,   0.01800,
,,,2.810000000000,   0.03000,
,,,2.820000000000,   0.00400,
,,,2.830000000000,   0.00400,
,,,2.840000000000,  -0.01200,
,,,2.850000000000,   0.00000,
,,,2.860000000000,  -0.02000,
,,,2.870000000000,  -0.01600,
,,,2.880000000000,  -0.04000,
,,,2.890000000000,  -0.03000,
,,,2.900000000000,  -0.04400,
,,,2.910000000000,  -0.03200,
,,,2.920000000000,  -0.05000,
,,,2.930000000000,  -0.03600,
,,,2.940000000000,  -0.06000,
,,,2.950000000000,  -0.04400,
,,,2.960000000000,  -0.06200,
,,,2.970000000000,  -0.04600,
,,,2.980000000000,  -0.06400,
,,,2.990000000000,  -0.05000,
,,,3.000000000000,  -0.06000,
,,,3.010000000000,  -0.04800,
,,,3.020000000000,  -0.06200,
,,,3.030000000000,  -0.03600,
,,,3.040000000000,  -0.04600,
,,,3.050000000000,  -0.03200,
,,,3.060000000000,  -0.05000,
,,,3.070000000000,  -0.03200,
,,,3.080000000000,  -0.05200,
,,,3.090000000000,  -0.03200,
,,,3.100000000000,  -0.04600,
,,,3.110000000000,  -0.03400,
,,,3.120000000000,  -0.04600,
,,,3.130000000000,  -0.03000,
,,,3.140000000000,  -0.04600,
,,,3.150000000000,  -0.03600,
,,,3.160000000000,  -0.04800,
,,,3.170000000000,  -0.03600,
,,,3.180000000000,  -0.04600,
,,,3.190000000000,  -0.03600,
,,,3.200000000000,  -0.05600,
,,,3.210000000000,  -0.04200,
,,,3.220000000000,  -0.05200,
,,,3.230000000000,  -0.03600,
,,,3.240000000000,  -0.03600,
,,,3.250000000000,  -0.01000,
,,,3.260000000000,  -0.00800,
,,,3.270000000000,   0.01800,
,,,3.280000000000,   0.03000,
,,,3.290000000000,   0.06000,
,,,3.300000000000,   0.06800,
,,,3.310000000000,   0.09800,
,,,3.320000000000,   0.09200,
,,,3.330000000000,   0.11200,
,,,3.340000000000,   0.10600,
,,,3.350000000000,   0.12200,
,,,3.360000000000,   0.11200,
,,,3.370000000000,   0.11800,
,,,3.380000000000,   0.09600,
,,,3.390000000000,   0.11400,
,,,3.400000000000,   0.08400,
,,,3.410000000000,   0.09000,
,,,3.420000000000,   0.06800,
,,,3.430000000000,   0.06800,
,,,3.440000000000,   0.04200,
,,,3.450000000000,   0.05000,
,,,3.460000000000,   0.02600,
,,,3.470000000000,   0.02600,
,,,3.480000000000,   0.00200,
,,,3.490000000000,   0.00800,
,,,3.500000000000,  -0.01400,
,,,3.510000000000,   0.00600,
,,,3.520000000000,  -0.02000,
,,,3.530000000000,   0.00000,
,,,3.540000000000,  -0.02000,
,,,3.550000000000,  -0.00200,
,,,3.560000000000,  -0.00800,
,,,3.570000000000,   0.01600,
,,,3.580000000000,   0.00200,
,,,3.590000000000,   0.02200,
,,,3.600000000000,   0.01400,
,,,3.610000000000,   0.02600,
,,,3.620000000000,   0.01400,
,,,3.630000000000,   0.02600,
,,,3.640000000000,   0.02000,
,,,3.650000000000,   0.03200,
,,,3.660000000000,   0.01400,
,,,3.670000000000,   0.02400,
,,,3.680000000000,   0.00200,
,,,3.690000000000,   0.01800,
,,,3.700000000000,  -0.00600,
,,,3.710000000000,   0.00000,
,,,3.720000000000,  -0.02000,
,,,3.730000000000,  -0.00800,
,,,3.740000000000,  -0.04200,
,,,3.750000000000,  -0.02000,
,,,3.760000000000,  -0.04200,
,,,3.770000000000,  -0.03000,
,,,3.780000000000,  -0.05000,
,,,3.790000000000,  -0.04200,
,,,3.800000000000,  -0.06200,
,,,3.810000000000,  -0.05200,
,,,3.820000000000,  -0.06200,
,,,3.830000000000,  -0.04200,
,,,3.840000000000,  -0.06600,
,,,3.850000000000,  -0.05200,
,,,3.860000000000,  -0.06400,
,,,3.870000000000,  -0.04400,
,,,3.880000000000,  -0.06600,
,,,3.890000000000,  -0.04600,
,,,3.900000000000,  -0.05000,
,,,3.910000000000,  -0.04200,
,,,3.920000000000,  -0.05200,
,,,3.930000000000,  -0.04000,
,,,3.940000000000,  -0.05600,
,,,3.950000000000,  -0.03200,
,,,3.960000000000,  -0.05000,
,,,3.970000000000,  -0.03200,
,,,3.980000000000,  -0.04400,
,,,3.990000000000,  -0.02600,
,,,4.000000000000,  -0.04600,
,,,4.010000000000,  -0.02800,
,,,4.020000000000,  -0.04200,
,,,4.030000000000,  -0.02400,
,,,4.040000000000,  -0.04600,
,,,4.050000000000,  -0.02400,
,,,4.060000000000,  -0.04400,
,,,4.070000000000,  -0.03600,
,,,4.080000000000,  -0.05200,
,,,4.090000000000,  -0.03600,
,,,4.100000000000,  -0.05600,
,,,4.110000000000,  -0.05000,
,,,4.120000000000,  -0.05600,
,,,4.130000000000,  -0.05200,
,,,4.140000000000,  -0.06400,
,,,4.150000000000,  -0.06400,
,,,4.160000000000,  -0.05600,
,,,4.170000000000,  -0.04400,
,,,4.180000000000,  -0.04000,
,,,4.190000000000,  -0.00600,
,,,4.200000000000,   0.00600,
,,,4.210000000000,   0.04000,
,,,4.220000000000,   0.04800,
,,,4.230000000000,   0.09200,
,,,4.240000000000,   0.09000,
,,,4.250000000000,   0.12600,
,,,4.260000000000,   0.11800,
,,,4.270000000000,   0.14400,
,,,4.280000000000,   0.13200,
,,,4.290000000000,   0.15200,
,,,4.300000000000,   0.13600,
,,,4.310000000000,   0.14400,
,,,4.320000000000,   0.12400,
,,,4.330000000000,   0.13600,
,,,4.340000000000,   0.11000,
,,,4.350000000000,   0.11000,
,,,4.360000000000,   0.09200,
,,,4.370000000000,   0.09200,
,,,4.380000000000,   0.06800,
,,,4.390000000000,   0.06400,
,,,4.400000000000,   0.04600,
,,,4.410000000000,   0.04800,
,,,4.420000000000,   0.02800,
,,,4.430000000000,   0.03000,
,,,4.440000000000,   0.01200,
,,,4.450000000000,   0.01600,
,,,4.460000000000,   0.00200,
,,,4.470000000000,   0.01400,
,,,4.480000000000,   0.00200,
,,,4.490000000000,   0.01800,
,,,4.500000000000,   0.01000,
,,,4.510000000000,   0.02200,
,,,4.520000000000,   0.01800,
,,,4.530000000000,   0.03200,
,,,4.540000000000,   0.02600,
,,,4.550000000000,   0.04600,
,,,4.560000000000,   0.02600,
,,,4.570000000000,   0.04800,
,,,4.580000000000,   0.02400,
,,,4.590000000000,   0.03600,
,,,4.600000000000,   0.02200,
,,,4.610000000000,   0.03200,
,,,4.620000000000,   0.00600,
,,,4.630000000000,   0.01000,
,,,4.640000000000,  -0.00800,
,,,4.650000000000,  -0.00600,
,,,4.660000000000,  -0.02000,
,,,4.670000000000,  -0.01000,
,,,4.680000000000,  -0.02800,
,,,4.690000000000,  -0.02200,
,,,4.700000000000,  -0.04800,
,,,4.710000000000,  -0.03000,
,,,4.720000000000,  -0.05800,
,,,4.730000000000,  -0.03800,
,,,4.740000000000,  -0.05800,
,,,4.750000000000,  -0.03800,
,,,4.760000000000,  -0.06200,
,,,4.770000000000,  -0.05200,
,,,4.780000000000,  -0.06600,
,,,4.790000000000,  -0.04600,
,,,4.800000000000,  -0.06600,
,,,4.810000000000,  -0.05200,
,,,4.820000000000,  -0.05600,
,,,4.830000000000,  -0.04800,
,,,4.840000000000,  -0.05200,
,,,4.850000000000,  -0.04800,
,,,4.860000000000,  -0.05400,
,,,4.870000000000,  -0.04000,
,,,4.880000000000,  -0.04800,
,,,4.890000000000,  -0.03400,
,,,4.900000000000,  -0.04800,
,,,4.910000000000,  -0.03200,
,,,4.920000000000,  -0.04200,
,,,4.930000000000,  -0.03200,
,,,4.940000000000,  -0.04800,
,,,4.950000000000,  -0.03200,
,,,4.960000000000,  -0.04400,
,,,4.970000000000,  -0.03400,
,,,4.980000000000,  -0.04800,
,,,4.990000000000,  -0.03600,
,,,5.000000000000,  -0.05400,
,,,5.010000000000,  -0.03600,
,,,5.020000000000,  -0.04800,
,,,5.030000000000,  -0.04200,
,,,5.040000000000,  -0.05800,
,,,5.050000000000,  -0.05200,
,,,5.060000000000,  -0.06400,
,,,5.070000000000,  -0.05400,
,,,5.080000000000,  -0.06400,
,,,5.090000000000,  -0.05800,
,,,5.100000000000,  -0.06400,
,,,5.110000000000,  -0.05400,
,,,5.120000000000,  -0.06600,
,,,5.130000000000,  -0.03800,
,,,5.140000000000,  -0.04200,
,,,5.150000000000,  -0.00800,
,,,5.160000000000,   0.00200,
,,,5.170000000000,   0.04000,
,,,5.180000000000,   0.04400,
,,,5.190000000000,   0.08400,
,,,5.200000000000,   0.09600,
,,,5.210000000000,   0.11800,
,,,5.220000000000,   0.11000,
,,,5.230000000000,   0.13400,
,,,5.240000000000,   0.12000,
,,,5.250000000000,   0.14200,
,,,5.260000000000,   0.12200,
,,,5.270000000000,   0.13200,
,,,5.280000000000,   0.11200,
,,,5.290000000000,   0.11800,
,,,5.300000000000,   0.10600,
,,,5.310000000000,   0.09200,
,,,5.320000000000,   0.07600,
,,,5.330000000000,   0.07400,
,,,5.340000000000,   0.05600,
,,,5.350000000000,   0.05400,
,,,5.360000000000,   0.03000,
,,,5.370000000000,   0.02800,
,,,5.380000000000,   0.01000,
,,,5.390000000000,   0.02000,
,,,5.400000000000,   0.00000,
,,,5.410000000000,   0.00600,
,,,5.420000000000,  -0.00800,
,,,5.430000000000,   0.00400,
,,,5.440000000000,  -0.00400,
,,,5.450000000000,   0.01800,
,,,5.460000000000,  -0.00200,
,,,5.470000000000,   0.02400,
,,,5.480000000000,   0.01600,
,,,5.490000000000,   0.03400,
,,,5.500000000000,   0.02800,
,,,5.510000000000,   0.03600,
,,,5.520000000000,   0.03200,
,,,5.530000000000,   0.04000,
,,,5.540000000000,   0.01800,
,,,5.550000000000,   0.03600,
,,,5.560000000000,   0.01400,
,,,5.570000000000,   0.02400,
,,,5.580000000000,   0.00800,
,,,5.590000000000,   0.00800,
,,,5.600000000000,  -0.00600,
,,,5.610000000000,   0.01000,
,,,5.620000000000,  -0.02000,
,,,5.630000000000,  -0.00800,
,,,5.640000000000,  -0.03400,
,,,5.650000000000,  -0.02000,
,,,5.660000000000,  -0.04000,
,,,5.670000000000,  -0.03200,
,,,5.680000000000,  -0.05000,
,,,5.690000000000,  -0.04200,
,,,5.700000000000,  -0.05600,
,,,5.710000000000,  -0.04800,
,,,5.720000000000,  -0.05600,
,,,5.730000000000,  -0.04800,
,,,5.740000000000,  -0.06400,
,,,5.750000000000,  -0.04600,
,,,5.760000000000,  -0.06000,
,,,5.770000000000,  -0.04000,
,,,5.780000000000,  -0.05600,
,,,5.790000000000,  -0.03800,
,,,5.800000000000,  -0.04800,
,,,5.810000000000,  -0.03600,
,,,5.820000000000,  -0.04800,
,,,5.830000000000,  -0.03000,
,,,5.840000000000,  -0.04400,
,,,5.850000000000,  -0.03000,
,,,5.860000000000,  -0.05000,
,,,5.870000000000,  -0.02200,
,,,5.880000000000,  -0.04000,
,,,5.890000000000,  -0.02400,
,,,5.900000000000,  -0.04200,
,,,5.910000000000,  -0.02800,
,,,5.920000000000,  -0.04200,
,,,5.930000000000,  -0.03800,
,,,5.940000000000,  -0.04800,
,,,5.950000000000,  -0.03200,
,,,5.960000000000,  -0.05400,
,,,5.970000000000,  -0.04000,
,,,5.980000000000,  -0.05600,
,,,5.990000000000,  -0.04600,
,,,6.000000000000,  -0.06000,
,,,6.010000000000,  -0.05200,
,,,6.020000000000,  -0.05800,
,,,6.030000000000,  -0.05200,
,,,6.040000000000,  -0.06400,
,,,6.050000000000,  -0.04000,
,,,6.060000000000,  -0.04000,
,,,6.070000000000,  -0.01000,
,,,6.080000000000,  -0.00400,
,,,6.090000000000,   0.04400,
,,,6.100000000000,   0.04800,
,,,6.110000000000,   0.07800,
,,,6.120000000000,   0.07200,
,,,6.130000000000,   0.10000,
,,,6.140000000000,   0.09600,
,,,6.150000000000,   0.12400,
,,,6.160000000000,   0.11800,
,,,6.170000000000,   0.12800,
,,,6.180000000000,   0.11600,
,,,6.190000000000,   0.11800,
,,,6.200000000000,   0.09800,
,,,6.210000000000,   0.10000,
,,,6.220000000000,   0.08600,
,,,6.230000000000,   0.09400,
,,,6.240000000000,   0.05800,
,,,6.250000000000,   0.06800,
,,,6.260000000000,   0.03600,
,,,6.270000000000,   0.03600,
,,,6.280000000000,   0.01800,
,,,6.290000000000,   0.01800,
,,,6.300000000000,  -0.00400,
,,,6.310000000000,  -0.01000,
,,,6.320000000000,  -0.01600,
,,,6.330000000000,  -0.01000,
,,,6.340000000000,  -0.02400,
,,,6.350000000000,  -0.00600,
,,,6.360000000000,  -0.01800,
,,,6.370000000000,   0.00200,
,,,6.380000000000,  -0.00400,
,,,6.390000000000,   0.01800,
,,,6.400000000000,   0.00000,
,,,6.410000000000,   0.02600,
,,,6.420000000000,   0.01200,
,,,6.430000000000,   0.03400,
,,,6.440000000000,   0.02400,
,,,6.450000000000,   0.03800,
,,,6.460000000000,   0.01800,
,,,6.470000000000,   0.03400,
,,,6.480000000000,   0.01800,
,,,6.490000000000,   0.02400,
,,,6.500000000000,  -0.00200,
,,,6.510000000000,   0.01000,
,,,6.520000000000,  -0.01400,
,,,6.530000000000,  -0.00800,
